{
  "name": "SSCOR from Pinnacle Dec 2020",
  "version": "04.19.2021",
  "meta": {
    "price": 22500,
    "documentation_url": "http://lonestartemplates.com/pinnacle-theme-manual/",
    "author_name": "Customized Lone Star Templates",
    "author_email": "support@lonestartemplates.com",
    "author_support_url": "https://lonestartemplates.com/pinnacle-theme-release-notes/",
    "composed_image": "composed.png",
    "features": [
      "fully_responsive",
      "multi_tiered_sidebar_menu",
      "masonry_design",
      "frontpage_slideshow",
      "quick_add_to_cart",
      "product_comparison_table",
      "complex_search_filtering",
      "customizable_product_selector",
      "cart_suggested_products",
      "free_customer_support",
      "free_theme_upgrades",
      "high_res_product_images",
      "product_filtering",
      "advanced_quick_view",
      "product_showcase",
      "persistent_cart",
      "one_page_check_out",
      "product_videos",
      "google_amp",
      "customized_checkout"
    ]
  },
  "css_compiler": "scss",
  "autoprefixer_cascade": true,
  "autoprefixer_browsers": [
    "last 3 versions"
  ],
  "settings": {
    "homepage_new_products_count": 4,
    "homepage_featured_products_count": 8,
    "homepage_top_products_count": 8,
    "homepage_show_carousel": true,
    "homepage_show_carousel_arrows": true,
    "homepage_stretch_carousel_images": false,
    "homepage_new_products_column_count": 4,
    "homepage_featured_products_column_count": 4,
    "homepage_top_products_column_count": 4,
    "homepage_blog_posts_count": 9,
    "productpage_videos_count": 8,
    "productpage_reviews_count": 9,
    "productpage_related_products_count": 4,
    "productpage_similar_by_views_count": 4,
    "categorypage_products_per_page": 12,
    "brands_column_count": 4,
    "brandpage_products_per_page": 12,
    "searchpage_products_per_page": 12,
    "show_product_quick_view": true,
    "show_powered_by": true,
    "show_sitemap_link": true,
    "shop_by_brand_show_footer": true,
    "show_copyright_footer": true,
    "show_accept_amazon_pay": true,
    "show_accept_amex": true,
    "show_accept_apple_pay": true,
    "show_accept_chase_pay": true,
    "show_accept_discover": true,
    "show_accept_mastercard": true,
    "show_accept_masterpass": true,
    "show_accept_paypal": true,
    "show_accept_visa": true,
    "show_accept_visa_pay": true,
    "product_list_display_mode": "grid",
    "logo-position": "left",
    "logo_size": "250x100",
    "brand_size": "190x250",
    "gallery_size": "300x300",
    "productgallery_size": "500x659",
    "product_size": "500x659",
    "productthumb_size": "100x100",
    "thumb_size": "100x100",
    "zoom_size": "1280x1280",
    "blog_size": "190x250",
    "default_image_brand": "/assets/img/BrandDefault.gif",
    "default_image_product": "/assets/img/ProductDefault.gif",
    "default_image_gift_certificate": "/assets/img/GiftCertificate.png",
    "default_cart_icon": "/assets/img/cart-icon.png",
    "default_account_icon": "/assets/img/account-icon.png",
    "default_back_to_top_icon": "/assets/img/back_to_top.png",
    "default_drop_down_icon": "/assets/img/drop-down-icon.png",
    "default_close_up_icon": "/assets/img/close-up-icon.png",
    "hover_drop_down_icon": "/assets/img/drop-down-icon-white.png",
    "hover_close_up_icon": "/assets/img/close-up-icon-white.png",
    "body-font": "Google_Karla_400",
    "headings-font": "Google_Montserrat_400",
    "logo-font": "Google_Oswald_300",
    "fontSize-root": 14,
    "fontSize-h1": 28,
    "fontSize-h2": 18,
    "fontSize-h3": 22,
    "fontSize-h4": 20,
    "fontSize-h5": 15,
    "fontSize-h6": 13,
    "applePay-button": "black",
    "color-textBase": "#4f4f4f",
    "color-textBase--hover": "#d42020",
    "color-textBase--active": "#a5a5a5",
    "color-textSecondary": "#989898",
    "color-textSecondary--hover": "#d42020",
    "color-textSecondary--active": "#d42020",
    "color-textLink": "#d42020",
    "color-textLink--hover": "#d42020",
    "color-textLink--active": "#d42020",
    "color-textHeading": "#2d2d2d",
    "color-primary": "#4f4f4f",
    "color-primaryDark": "#454545",
    "color-primaryDarker": "#545454",
    "color-primaryLight": "#a5a5a5",
    "color-secondary": "#ffffff",
    "color-secondaryDark": "#e8e8e8",
    "color-secondaryDarker": "#e8e8e8",
    "color-error": "#ff7d7d",
    "color-errorLight": "#ffdddd",
    "color-info": "#666666",
    "color-infoLight": "#dfdfdf",
    "color-success": "#69d66f",
    "color-successLight": "#d5ffd8",
    "color-warning": "#d4cb49",
    "color-warningLight": "#fffdea",
    "color-black": "#000000",
    "color-white": "#ffffff",
    "color-whitesBase": "#f8f8f8",
    "color-grey": "#4f4f4f",
    "color-greyDarkest": "#2d2d2d",
    "color-greyDarker": "#454545",
    "color-greyDark": "#666666",
    "color-greyMedium": "#989898",
    "color-greyLight": "#a5a5a5",
    "color-greyLighter": "#dfdfdf",
    "color-greyLightest": "#e8e8e8",
    "button--default-color": "#454545",
    "button--default-colorHover": "#666666",
    "button--default-colorActive": "#454545",
    "button--default-borderColor": "#dfdfdf",
    "button--default-borderColorHover": "#989898",
    "button--default-borderColorActive": "#454545",
    "button--primary-color": "#ffffff",
    "button--primary-colorHover": "#ffffff",
    "button--primary-colorActive": "#ffffff",
    "button--primary-backgroundColor": "#454545",
    "button--primary-backgroundColorHover": "#666666",
    "button--primary-backgroundColorActive": "#989898",
    "button--disabled-color": "#ffffff",
    "button--disabled-backgroundColor": "#dadada",
    "button--disabled-borderColor": "#dadada",
    "icon-color": "#4f4f4f",
    "icon-color-hover": "#a5a5a5",
    "button--icon-svg-color": "#4f4f4f",
    "icon-ratingEmpty": "#dfdfdf",
    "icon-ratingFull": "#454545",
    "carousel-bgColor": "7f7f7f",
    "carousel-title-color": "#2d2d2d",
    "carousel-description-color": "#2d2d2d",
    "carousel-dot-color": "#2d2d2d",
    "carousel-dot-color-active": "#666666",
    "carousel-dot-bgColor": "#ffffff",
    "carousel-arrow-color": "#989898",
    "carousel-arrow-bgColor": "#ffffff",
    "card-title-color": "#545454",
    "card-title-color-hover": "#d42020",
    "card-figcaption-button-background": "#ffffff",
    "card-figcaption-button-color": "#2d2d2d",
    "card--alternate-backgroundColor": "#ffffff",
    "card--alternate-borderColor": "#ffffff",
    "card--alternate-color--hover": "#ffffff",
    "form-label-font-color": "#666666",
    "input-font-color": "#454545",
    "input-border-color": "#dfdfdf",
    "input-border-color-active": "#989898",
    "input-bg-color": "#ffffff",
    "input-disabled-bg": "#ffffff",
    "select-bg-color": "#ffffff",
    "select-arrow-color": "#828282",
    "checkRadio-color": "#4f4f4f",
    "checkRadio-backgroundColor": "#ffffff",
    "checkRadio-borderColor": "#dfdfdf",
    "alert-color": "#4f4f4f",
    "alert-color-alt": "#ffffff",
    "storeName-color": "#4f4f4f",
    "body-bg": "#ffffff",
    "header-backgroundColor": "#ffffff",
    "header-layout": "in-container",
    "footer-backgroundColor": "#ffffff",
    "navUser-color": "#4f4f4f",
    "navUser-color-hover": "#a5a5a5",
    "navUser-dropdown-backgroundColor": "#ffffff",
    "navUser-dropdown-borderColor": "#e8e8e8",
    "navUser-indicator-backgroundColor": "#4f4f4f",
    "navPages-color": "#4f4f4f",
    "navPages-color-hover": "#a5a5a5",
    "navPages-subMenu-backgroundColor": "#f2f2f2",
    "navPages-subMenu-separatorColor": "#dfdfdf",
    "dropdown--quickSearch-backgroundColor": "#e8e8e8",
    "blockquote-cite-font-color": "#a5a5a5",
    "container-border-global-color-base": "#e8e8e8",
    "container-border-global-color-dark": "#454545",
    "container-fill-base": "#ffffff",
    "container-fill-dark": "#f2f2f2",
    "label-backgroundColor": "#bfbfbf",
    "label-color": "#ffffff",
    "overlay-backgroundColor": "#2d2d2d",
    "loadingOverlay-backgroundColor": "#ffffff",
    "pace-progress-backgroundColor": "#989898",
    "spinner-borderColor-dark": "#545454",
    "spinner-borderColor-light": "#ffffff",
    "hide_content_navigation": false,
    "optimizedCheckout-header-backgroundColor": "#f7f7f7",
    "optimizedCheckout-show-backgroundImage": false,
    "optimizedCheckout-backgroundImage": "",
    "optimizedCheckout-backgroundImage-size": "1000x400",
    "optimizedCheckout-show-logo": "none",
    "optimizedCheckout-logo": "",
    "optimizedCheckout-logo-size": "250x100",
    "optimizedCheckout-logo-position": "left",
    "optimizedCheckout-headingPrimary-color": "#2d2d2d",
    "optimizedCheckout-headingPrimary-font": "Google_Montserrat_400",
    "optimizedCheckout-headingSecondary-color": "#2d2d2d",
    "optimizedCheckout-headingSecondary-font": "Google_Montserrat_400",
    "optimizedCheckout-body-backgroundColor": "#ffffff",
    "optimizedCheckout-contentPrimary-color": "#4f4f4f",
    "optimizedCheckout-contentPrimary-font": "Google_Karla_400",
    "optimizedCheckout-contentSecondary-color": "#989898",
    "optimizedCheckout-contentSecondary-font": "Google_Karla_400",
    "optimizedCheckout-buttonPrimary-font": "Google_Karla_400",
    "optimizedCheckout-buttonPrimary-color": "#ffffff",
    "optimizedCheckout-buttonPrimary-colorHover": "#ffffff",
    "optimizedCheckout-buttonPrimary-colorActive": "#ffffff",
    "optimizedCheckout-buttonPrimary-backgroundColor": "#454545",
    "optimizedCheckout-buttonPrimary-backgroundColorHover": "#666666",
    "optimizedCheckout-buttonPrimary-backgroundColorActive": "#989898",
    "optimizedCheckout-buttonPrimary-borderColor": "#454545",
    "optimizedCheckout-buttonPrimary-borderColorHover": "#666666",
    "optimizedCheckout-buttonPrimary-borderColorActive": "#989898",
    "optimizedCheckout-buttonSecondary-font": "Google_Karla_400",
    "optimizedCheckout-buttonSecondary-color": "#4f4f4f",
    "optimizedCheckout-buttonSecondary-backgroundColor": "#ffffff",
    "optimizedCheckout-buttonSecondary-borderColor": "#dfdfdf",
    "optimizedCheckout-link-color": "#4496f6",
    "optimizedCheckout-link-font": "Google_Karla_400",
    "optimizedCheckout-discountBanner-backgroundColor": "#f5f5f5",
    "optimizedCheckout-discountBanner-textColor": "#333333",
    "optimizedCheckout-discountBanner-iconColor": "#333333",
    "optimizedCheckout-orderSummary-backgroundColor": "#ffffff",
    "optimizedCheckout-step-backgroundColor": "#4f4f4f",
    "optimizedCheckout-step-textColor": "#ffffff",
    "optimizedCheckout-form-textColor": "#666666",
    "optimizedCheckout-formField-backgroundColor": "white",
    "optimizedCheckout-formField-borderColor": "#989898",
    "price_as_low_as": false,
    "product_sale_badges": "topleft",
    "color_badge_product_sale_badges": "#007dc6",
    "color_text_product_sale_badges": "#ffffff",
    "color_hover_product_sale_badges": "#000000",
    "restrict_to_login": false,
    "swatch_option_size": "22x22",
    "social_icon_placement_top": false,
    "social_icon_placement_bottom": "bottom_none",
    "geotrust_ssl_common_name": "",
    "geotrust_ssl_seal_size": "M",
    "navigation_design": "alternate",
    "content_page_layout": "no-sidenav",
    "contact_page_layout": "no-sidenav",
    "product_page_layout": "no-sidenav",
    "show_product_quick_view": true,
    "supported_card_type_icons": [
      "american_express",
      "diners",
      "discover",
      "mastercard",
      "visa"
    ],
    "supported_payment_methods": [
      "card",
      "paypal"
    ],
    "lazyload_mode": "lazyload+lqip",
    "show-admin-bar": true
  },
  "read_only_files": [
    "/assets/scss/components/citadel",
    "/assets/scss/components/foundation",
    "/assets/scss/components/vendor",
    "/assets/scss/settings/citadel",
    "/assets/scss/settings/foundation",
    "/assets/scss/settings/normalize",
    "/assets/scss/settings/vendor",
    "/assets/scss/vendor"
  ],
  "resources": {
    "cart": true,
    "shop_by_brand": {
      "limit": 10
    }
  },
  "variations": [
    {
      "name": "SSCOR Impact",
      "id": "impact",
      "meta": {
        "desktop_screenshot": "desktop_impact.png",
        "mobile_screenshot": "mobile_impact.png",
        "description": "Pinnacle is a flexible and feature-rich theme designed to sell more. It's classic left navigation is perfect for stores with multiple products and categories, and it’s highly customizable theme editor lets you tailor your store to perfection. Powerful enough to handle any size of inventory, Pinnacle is ideal for startups and enterprise stores alike.",
        "demo_url": "http://pinnacle-impact-demo.mybigcommerce.com/",
        "optimized_for": [
          "multi_purpose",
          "mobile_tablet_desktop",
          "sales_discounts",
          "large_catalog",
          "automotive_industrial",
          "electronics_computers",
          "home_garden",
          "sports_recreation"
        ],
        "industries": [
          "automotive_industrial",
          "electronics_computers",
          "home_garden",
          "sports_recreation"
        ]
      },
      "settings": {
        "homepage_new_products_count": 0,
        "homepage_featured_products_count": 12,
        "homepage_top_products_count": 0,
        "homepage_show_carousel": false,
        "homepage_show_carousel_arrows": true,
        "homepage_stretch_carousel_images": false,
        "homepage_new_products_column_count": 4,
        "homepage_featured_products_column_count": 4,
        "homepage_top_products_column_count": 4,
        "homepage_blog_posts_count": 9,
        "productpage_videos_count": 8,
        "productpage_reviews_count": 9,
        "productpage_related_products_count": 10,
        "productpage_similar_by_views_count": 10,
        "categorypage_products_per_page": 12,
        "brands_column_count": 4,
        "brandpage_products_per_page": 12,
        "searchpage_products_per_page": 12,
        "show_product_quick_view": false,
        "show_powered_by": false,
        "show_sitemap_link": false,
        "shop_by_brand_show_footer": true,
        "show_copyright_footer": true,
        "show_accept_amazon_pay": false,
        "show_accept_amex": false,
        "show_accept_apple_pay": false,
        "show_accept_chase_pay": false,
        "show_accept_discover": false,
        "show_accept_mastercard": false,
        "show_accept_masterpass": false,
        "show_accept_paypal": false,
        "show_accept_visa": false,
        "show_accept_visa_pay": false,
        "product_list_display_mode": "grid",
        "logo-position": "left",
        "logo_size": "250x100",
        "brand_size": "190x250",
        "gallery_size": "300x300",
        "productgallery_size": "500x659",
        "product_size": "500x659",
        "productthumb_size": "100x100",
        "thumb_size": "100x100",
        "zoom_size": "1280x1280",
        "blog_size": "190x250",
        "default_image_brand": "/assets/img/BrandDefault.gif",
        "default_image_product": "/assets/img/ProductDefault.gif",
        "default_image_gift_certificate": "/assets/img/GiftCertificate.png",
        "default_cart_icon": "/assets/img/cart-icon.png",
        "default_account_icon": "/assets/img/account-icon.png",
        "default_back_to_top_icon": "/assets/img/back_to_top.png",
        "default_drop_down_icon": "/assets/img/drop-down-icon.png",
        "default_close_up_icon": "/assets/img/close-up-icon.png",
        "hover_drop_down_icon": "/assets/img/drop-down-icon-white.png",
        "hover_close_up_icon": "/assets/img/close-up-icon-white.png",
        "body-font": "Google_Lato_400",
        "headings-font": "Google_Lato_300",
        "logo-font": "Google_Lato_700",
        "fontSize-root": 14,
        "fontSize-h1": 28,
        "fontSize-h2": 18,
        "fontSize-h3": 22,
        "fontSize-h4": 20,
        "fontSize-h5": 15,
        "fontSize-h6": 13,
        "applePay-button": "black",
        "color-textBase": "#2f2f2b",
        "color-textBase--hover": "#fd0404",
        "color-textBase--active": "#fd0404",
        "color-textSecondary": "#393939",
        "color-textSecondary--hover": "#d42020",
        "color-textSecondary--active": "#ffffff",
        "color-textLink": "#d42020",
        "color-textLink--hover": "#d42020",
        "color-textLink--active": "#d42020",
        "color-textHeading": "#2f2f2b",
        "color-primary": "#FD0404",
        "color-primaryDark": "#8b8b8b",
        "color-primaryDarker": "#fd6404",
        "color-primaryLight": "#393939",
        "color-secondary": "#ffffff",
        "color-secondaryDark": "#ffffff",
        "color-secondaryDarker": "#2f2f2b",
        "color-error": "#fd6404",
        "color-errorLight": "#ffdddd",
        "color-info": "#666666",
        "color-infoLight": "#dfdfdf",
        "color-success": "#2f2f2b",
        "color-successLight": "#d5ffd8",
        "color-warning": "#d4cb49",
        "color-warningLight": "#fffdea",
        "color-black": "#ffffff",
        "color-white": "#ffffff",
        "color-whitesBase": "#f8f8f8",
        "color-grey": "#e5e5e5",
        "color-greyDarkest": "#ffffff",
        "color-greyDarker": "#2f2f2b",
        "color-greyDark": "#2f2f2b",
        "color-greyMedium": "#393939",
        "color-greyLight": "#f2f2f2",
        "color-greyLighter": "#dfdfdf",
        "color-greyLightest": "#cac9c9",
        "button--default-color": "#454545",
        "button--default-colorHover": "#393939",
        "button--default-colorActive": "#454545",
        "button--default-borderColor": "#dfdfdf",
        "button--default-borderColorHover": "#fd0404",
        "button--default-borderColorActive": "#454545",
        "button--primary-color": "#ffffff",
        "button--primary-colorHover": "#ffffff",
        "button--primary-colorActive": "#ffffff",
        "button--primary-backgroundColor": "#fd0404",
        "button--primary-backgroundColorHover": "#fd0404",
        "button--primary-backgroundColorActive": "#989898",
        "button--disabled-color": "#ffffff",
        "button--disabled-backgroundColor": "#dadada",
        "button--disabled-borderColor": "#cac9c9",
        "icon-color": "#2f2f2b",
        "icon-color-hover": "#fd6404",
        "button--icon-svg-color": "#ffffff",
        "icon-ratingEmpty": "#ebebeb",
        "icon-ratingFull": "#FD0404",
        "carousel-bgColor": "#ffffff",
        "carousel-title-color": "#2f2f2b",
        "carousel-description-color": "#2f2f2b",
        "carousel-dot-color": "#ffffff",
        "carousel-dot-color-active": "#FD0404",
        "carousel-dot-bgColor": "transparent",
        "carousel-arrow-color": "#b3b3b3",
        "carousel-arrow-bgColor": "#2f2f2b",
        "card-title-color": "#545454",
        "card-title-color-hover": "#FD0404",
        "card-figcaption-button-background": "transparent",
        "card-figcaption-button-color": "#FD0404",
        "card--alternate-backgroundColor": "#ffffff",
        "card--alternate-borderColor": "#ffffff",
        "card--alternate-color--hover": "#ffffff",
        "form-label-font-color": "#2f2f2b",
        "input-font-color": "#656565",
        "input-border-color": "#e5e5e5",
        "input-border-color-active": "#989898",
        "input-bg-color": "#ffffff",
        "input-disabled-bg": "#ffffff",
        "select-bg-color": "#ffffff",
        "select-arrow-color": "#828282",
        "checkRadio-color": "#2f2f2b",
        "checkRadio-backgroundColor": "#ffffff",
        "checkRadio-borderColor": "#dfdfdf",
        "alert-color": "#4f4f4f",
        "alert-color-alt": "#ffffff",
        "storeName-color": "#4f4f4f",
        "body-bg": "#ffffff",
        "header-backgroundColor": "#eaeaea",
        "header-layout": "full-width",
        "footer-backgroundColor": "#E5E5E5",
        "navUser-color": "#4f4f4f",
        "navUser-color-hover": "#a5a5a5",
        "navUser-dropdown-backgroundColor": "#ffffff",
        "navUser-dropdown-borderColor": "#e8e8e8",
        "navUser-indicator-backgroundColor": "#4f4f4f",
        "navPages-color": "#ffffff",
        "navPages-color-hover": "#fd6404",
        "navPages-subMenu-backgroundColor": "#f2f2f2",
        "navPages-subMenu-separatorColor": "#dfdfdf",
        "dropdown--quickSearch-backgroundColor": "#e8e8e8",
        "blockquote-cite-font-color": "#a5a5a5",
        "container-border-global-color-base": "#cac9c9",
        "container-border-global-color-dark": "#ebebeb",
        "container-fill-base": "#8b8b8b",
        "container-fill-dark": "#cac9c9",
        "label-backgroundColor": "#bfbfbf",
        "label-color": "#ffffff",
        "overlay-backgroundColor": "#343434",
        "loadingOverlay-backgroundColor": "#585858",
        "pace-progress-backgroundColor": "#FD0404",
        "spinner-borderColor-dark": "#2f2f2b",
        "spinner-borderColor-light": "#FD0404",
        "hide_content_navigation": false,
        "optimizedCheckout-header-backgroundColor": "#eaeaea",
        "optimizedCheckout-show-backgroundImage": false,
        "optimizedCheckout-backgroundImage": "",
        "optimizedCheckout-backgroundImage-size": "1000x400",
        "optimizedCheckout-show-logo": "none",
        "optimizedCheckout-logo": "",
        "optimizedCheckout-logo-size": "250x100",
        "optimizedCheckout-logo-position": "left",
        "optimizedCheckout-headingPrimary-color": "#2f2f2b",
        "optimizedCheckout-headingPrimary-font": "Google_Lato_400",
        "optimizedCheckout-headingSecondary-color": "#2f2f2b",
        "optimizedCheckout-headingSecondary-font": "Google_Lato_400",
        "optimizedCheckout-body-backgroundColor": "#ffffff",
        "optimizedCheckout-contentPrimary-color": "#2f2f2b",
        "optimizedCheckout-contentPrimary-font": "GGoogle_Lato_400",
        "optimizedCheckout-contentSecondary-color": "#2f2f2b",
        "optimizedCheckout-contentSecondary-font": "Google_Lato_400",
        "optimizedCheckout-buttonPrimary-font": "Google_Lato_700",
        "optimizedCheckout-buttonPrimary-color": "#ffffff",
        "optimizedCheckout-buttonPrimary-colorHover": "#ffffff",
        "optimizedCheckout-buttonPrimary-colorActive": "#ffffff",
        "optimizedCheckout-buttonPrimary-backgroundColor": "#fd0404",
        "optimizedCheckout-buttonPrimary-backgroundColorHover": "#fd0404",
        "optimizedCheckout-buttonPrimary-backgroundColorActive": "#fd0404",
        "optimizedCheckout-buttonPrimary-borderColor": "#fd0404",
        "optimizedCheckout-buttonPrimary-borderColorHover": "#fd0404",
        "optimizedCheckout-buttonPrimary-borderColorActive": "#fd0404",
        "optimizedCheckout-buttonSecondary-font": "Google_Lato_700",
        "optimizedCheckout-buttonSecondary-color": "#ffffff",
        "optimizedCheckout-buttonSecondary-backgroundColor": "#fd0404",
        "optimizedCheckout-buttonSecondary-borderColor": "#fd0404",
        "optimizedCheckout-link-color": "#fd0404",
        "optimizedCheckout-link-font": "Google_Lato_400",
        "optimizedCheckout-discountBanner-backgroundColor": "#f5f5f5",
        "optimizedCheckout-discountBanner-textColor": "#ffffff",
        "optimizedCheckout-discountBanner-iconColor": "#ffffff",
        "optimizedCheckout-orderSummary-backgroundColor": "#ffffff",
        "optimizedCheckout-step-backgroundColor": "#e5e5e5",
        "optimizedCheckout-step-textColor": "#2f2f2b",
        "optimizedCheckout-form-textColor": "#2f2f2b",
        "optimizedCheckout-formField-backgroundColor": "#ffffff",
        "optimizedCheckout-formField-borderColor": "#8b8b8b",
        "price_as_low_as": false,
        "product_sale_badges": "topleft",
        "color_badge_product_sale_badges": "#FD0404",
        "color_text_product_sale_badges": "#ffffff",
        "color_hover_product_sale_badges": "#FD0404",
        "restrict_to_login": false,
        "swatch_option_size": "22x22",
        "social_icon_placement_top": false,
        "social_icon_placement_bottom": "bottom_none",
        "geotrust_ssl_common_name": "",
        "geotrust_ssl_seal_size": "M",
        "navigation_design": "alternate",
        "content_page_layout": "no-sidenav",
        "contact_page_layout": "no-sidenav",
        "product_page_layout": "no-sidenav",
        "supported_card_type_icons": [
          "american_express",
          "diners",
          "discover",
          "mastercard",
          "visa"
        ],
        "supported_payment_methods": [
          "card",
          "paypal"
        ],
        "lazyload_mode": "lazyload+lqip",
        "show-admin-bar": true,
        "logo-textColor": "#2f2f2b",
        "header-linkColor": "#4f4f4f",
        "cart-countPill-bgColor": "#FD0404",
        "cart-countPill-numberColor": "#ffffff",
        "header-linkHoverColor": "#FD0404",
        "header-search-iconColor": "#2f2f2b",
        "body_width": 1170,
        "homepage_productGrid_column_count": 4,
        "category_brand_search_productGrid_column_count": 4,
        "homePage-activeTab-bgColor": "transparent",
        "homePage-tabs-bgColor": "transparent",
        "homePage-activeTab-borderColor": "#fd6404",
        "featured_products_layout": "in-tabs-in-carousels",
        "footer-fontColor": "#2f2f2b",
        "header-bgColor": "#FFFFFF",
        "card-borderColor": "#ebebeb",
        "saleFlag-fontFamily": "Google_Lato_700",
        "saleFlag-borderColor": "#FD0404",
        "saleFlag-hover-borderColor": "#FD0404",
        "button--primary-borderColor": "#fd0404",
        "input-bgColor-secondary": "#ffffff",
        "topMenu-fontFamily": "Google_Lato_400",
        "topMenu-fontSize": 14,
        "topMenu-fontColor": "#2f2f2b",
        "topMenu-fontHoverColor": "#FD0404",
        "topMenu-bgColor": "#ffffff",
        "topMenu-borderColor": "#ebebeb",
        "topMenu-cartIcon-color": "#2f2f2b",
        "topMenu-cartIcon-bgColor": "#2f2f2b",
        "topMenu-cartIcon-borderColor": "#fd6404",
        "topMenu-cartIconHover-color": "#ffffff",
        "topMenu-cartIconHover-bgColor": "#fd6404",
        "topMenu-cartIconHover-borderColor": "#fd6404",
        "mainNav-fontFamily": "Google_Lato_700",
        "mainNav-fontSize": 14,
        "mainNav-fontColor": "#FFFFFF",
        "mainNav-fontHoverColor": "#FD0404",
        "mainSubNav-fontFamily": "Google_Lato_400",
        "mainSubNav-fontSize": 13,
        "sideNav-fontSize": 13,
        "main-nav-layout": "in-container",
        "mainSubNav-fontColor": "#2f2f2b",
        "mainSubNav-fontHoverColor": "#D90606",
        "mainSubNav-bgColor": "#ffffff",
        "mainNav-bgColor": "#000000",
        "mainNav-borderColor": "#ebebeb",
        "mainNav-align": "center",
        "sideNav-fontFamily": "Google_Lato_700",
        "sideNav-fontColor": "#2f2f2b",
        "sideNav-fontHoverColor": "#2f2f2b",
        "sideSubNav-fontFamily": "Google_Lato_700",
        "sideSubNav-fontSize": 13,
        "sideSubNav-thirdLevel-fontSize": 12,
        "sideSubNav-fourLevelsPlus-fontSize": 11,
        "sideNav-bgColor": "#ebebeb",
        "sideNav-active-bgColor": "#f6f6f6",
        "sideNav-active-fontColor": "#2f2f2b",
        "sideNav-active-hover-fontColor": "#fd6404",
        "sideNav-borderColor": "#ebebeb",
        "sideNav-topLevel-active-bgColor": "#e0e0e0",
        "sideNav-topLevel-active-fontColor": "#2f2f2b",
        "sideNav-topLevel-active-hover-fontColor": "#2f2f2b",
        "sideNav-subLevel-default-fontColor": "#2f2f2b",
        "sideNav-subLevel-active-fontColor": "#ffffff",
        "sideNav-subLevel-active-hover-fontColor": "#2f2f2b",
        "sideNav-hover-bgColor": "#e0e0e0",
        "sideNav-active-borderColor": "#ebebeb",
        "brands_visibility": "no-brands",
        "containerHeader-fontFamily": "Google_Lato_700",
        "containerHeader-fontSize": 20,
        "containerHeader-fontColor": "#2f2f2b",
        "containerHeader-bgColor": "transparent",
        "containerHeader-borderColor": "#ebebeb",
        "banner-fontFamily": "Google_Lato_700",
        "banner-fontSize": 14,
        "banner-fontColor": "#ffffff",
        "banner-bgColor": "#C9C9C9",
        "banner-borderColor": "transaparent",
        "newsletter-font": "Google_Lato_700",
        "newsletter-fontSize": 20,
        "newsletter-fontColor": "#2f2f2b",
        "newsletter-bgColor": "#cac9c9",
        "newsletter-button-bgColor": "#fd0404",
        "newsletter-button-bgHoverColor": "#fe7e00",
        "newsletter-button-borderColor": "#fd6404",
        "newsletter-button-borderHoverColor": "#fe7e00",
        "buttons-fontFamily": "Google_Lato_700",
        "footerHeaders-font": "Google_Lato_700",
        "footerInfoList-font": "Google_Lato_700",
        "footerCopyrightBar-font": "Google_Lato_400",
        "footerCopyrightBar-fontColor": "#2f2f2b",
        "footerCopyrightBar-bgColor": "#8b8b8b",
        "footerCopyrightBar-borderColor": "#2f2f2b",
        "footer-fontHoverColor": "#FD0404",
        "footer-containerBorderColor": "#ebebeb",
        "backToTopColor": "#FD0404",
        "backToTopHoverColor": "#FD4F3B",
        "card-figcaption-button-hover-background": "#FD0404",
        "card-figppaction-button-border-color": "#FD0404",
        "card-figpaction-button-hover-border-color": "#FD0404",
        "card-figpaction-button-hover-text-color": "#ffffff",
        "quickView-button-textColor": "#2f2f2b",
        "quickView-button-bgColor": "#ffffff",
        "quickView-buttonHover-textColor": "#ffffff",
        "quickView-buttonHover-bgColor": "#FD0404",
        "quickView-button-borderColor": "transparent",
        "quickView-button-border-hoverColor": "transparent",
        "cardTitle-fontFamily": "Google_Lato_700",
        "cardTitle-fontSize": 14,
        "cardText-fontFamily": "Google_Lato_700",
        "cardText-fontSize": 16,
        "cardText-color": "#2f2f2b",
        "card-bgColor": "#ffffff",
        "card-figure-bgColor": "#ffffff",
        "slideButton-fontFamily": "Google_Lato_700",
        "slideButton-textColor": "#ffffff",
        "slideButton-bgColor": "#FD0404",
        "slideButton-borderColor": "#FD0404",
        "slideButton-hover-textColor": "#ffffff",
        "slideButton-hover-bgColor": "#D90606",
        "slideButton-hover-borderColor": "#FD0404",
        "slideTitle-fontFamily": "Google_Lato_700",
        "slideDescription-fontFamily": "Google_Lato_700",
        "subCategory-fontFamily": "Google_Lato_700",
        "subCategory-fontColor": "#2f2f2b",
        "subCategory-fontHoverColor": "#FD0404",
        "compare-fontFamily": "Google_Lato_400",
        "compare-fontColor": "#2f2f2b",
        "compareButton-fontFamily": "Google_Lato_700",
        "compareButton-textColor": "#2f2f2b",
        "compareButton-borderColor": "transparent",
        "compareButton-bgColor": "#ebebeb",
        "compareButton-bgHoverColor": "#FD0404",
        "compareButton-textHoverColor": "#ffffff",
        "productPage-brand-fontFamily": "Google_Lato_400",
        "productPage-brand-textColor": "#2f2f2b",
        "productPage-brand-textHoverColor": "#FD0404",
        "productPage-title-fontFamily": "Google_Lato_700",
        "productPage-title-textColor": "#2f2f2b",
        "productPage-price-fontFamily": "Google_Lato_700",
        "productPage-price-textColor": "#2f2f2b",
        "productPage-infoName-fontFamily": "Google_Lato_700",
        "productPage-infoName-textColor": "#2f2f2b",
        "productPage-infoValue-fontFamily": "Google_Lato_400",
        "productPage-infoValue-textColor": "#2f2f2b",
        "productPage-addButton-bgColor": "#FD0404",
        "productPage-addButton-bgHoverColor": "#D90606",
        "productPage-addButton-borderColor": "#FD0404",
        "productPage-addbutton-borderHoverColor": "#D90606",
        "productPage-addButton-textColor": "#ffffff",
        "productPage-addButton-textHoverColor": "#ffffff",
        "productPage-tabs-fontFamily": "Google_Lato_400",
        "productPage-tabs-textColor": "#2f2f2b",
        "productPage-tabs-bgColor": "#ffffff",
        "productPage-activeTab-bgColor": "#ffffff",
        "productPage-activeTab-textColor": "#FD0404",
        "productPage-tabs-textHoverColor": "#FD0404",
        "productPage-tabContentTitle-fontFamily": "Google_Lato_400",
        "productPage-tabContentTitle-textColor": "#2f2f2b",
        "productPage-tabContent-fontFamily": "Google_Lato_400",
        "productPage-tabContent-textColor": "#2f2f2b",
        "related_productGrid_column_count": 4,
        "blog-readMoreButton-fontFamily": "Google_Lato_700",
        "blog-readMoreButton-fontColor": "#2f2f2b",
        "blog-readMoreButton-bgColor": "#e5e5e5",
        "blog-readMoreButton-bgHoverColor": "#fd6404",
        "blog-readMoreButton-fontHoverColor": "#ffffff",
        "blog-readMoreButton-borderColor": "#c9c9c9",
        "blog-readMoreButton-borderHoverColor": "#fd6404",
        "contentPageTitle-fontFamily": "Google_Lato_300",
        "contentPageTitle-fontSize": 28,
        "contentPageTitle-fontColor": "#2f2f2b",
        "contentPage-paragraphText-fontFamily": "Google_Lato_400",
        "contentPage-paragraphText-fontColor": "#2f2f2b",
        "contentPage-headers-fontFamily": "Google_Lato_700",
        "contentPage-headers-fontColor": "#2f2f2b",
        "contentPage-anchor-fontColor": "#FD0404",
        "contentPage-anchor-fontHoverColor": "#FD4F3B",
        "forms-submitButton-fontFamily": "Google_Lato_700",
        "forms-submitButton-fontColor": "#ffffff",
        "forms-submitButton-bgColor": "#FD0404",
        "forms-submitButton-borderColor": "#FD0404",
        "forms-submitButton-fontHoverColor": "#ffffff",
        "forms-submitButton-bgHoverColor": "#D90606",
        "forms-submitButton-borderHoverColor": "#D90606",
        "socialIcons-color": "#2f2f2b",
        "paymentIcons-color": "#2f2f2b",
        "social-shareIconsColor": "#e5e5e5",
        "social-shareIconsHoverColor": "#fd6404",
        "socialIcons-colorHover": "#FD0404",
        "mobileHeader-bgColor": "#ffffff",
        "mobileMenu-containerHeader-bgColor": "#393939",
        "mobileMenu-containerHeader-borderColor": "#8b8b8b",
        "mobileMenu-containerHeader-fontColor": "#ffffff",
        "mobileMenu-bgColor": "#393939",
        "mobileMenu-active-bgColor": "#8b8b8b",
        "mobileHero-bgColor": "#CAC9C9",
        "mobileMenu-fontColor": "#ffffff",
        "mobileMenu-fontHoverColor": "#ffffff",
        "quickCart-button-bgColor": "#FD0404",
        "quickCart-button-borderColor": "#FD0404",
        "quickCart-button-textColor": "#ffffff",
        "quickCart-buttonHover-bgColor": "#D90606",
        "quickCart-buttonHover-borderColor": "#D90606",
        "quickCart-buttonHover-textColor": "#ffffff",
        "test-fontFamily": "Google_Lato_700",
        "newsletterPopup-headlineColor": "#000000",
        "newsletterPopup-button-bgColor": "#fd6404",
        "newsletterPopup-button-fontColor": "#ffffff",
        "newsletter-button-fontColor": "#ffffff",
        "newsletter-button-fontHoverColor": "#ffffff",
        "popup_visibility": "popup-inactive",
        "product_layout_view": "both_grid_default",
        "slider_width": "in-container",
        "slider_content_alignment": "left",
        "slide_content_background": "no-bg",
        "product_hover_images": "active",
        "additional_payment_options_visibility": "visible",
        "bottom_pagination_visibility": true,
        "sticky_topMenu": false,
        "theme-fontFamily": "Google_Lato_700",
        "base-fontFamilyOneLight": "Google_Lato_300",
        "base-fontFamilyOneNormal": "Google_Lato_400",
        "base-fontFamilyOneBold": "Google_Lato_700",
        "base-fontFamilyTwo": "Google_Lato_400",
        "latest_news_visibility": "visible",
        "brands_slider_visibility": "visible",
        "secondary-fontColor": "#ffffff",
        "secondary-font-hoverColor": "#ffffff",
        "recent_news_layout": 3,
        "paginationActive-bgColor": "#ebebeb",
        "alt-catMenu-bgColor": "#ffffff",
        "shop_nav_alt_visibility": true,
        "home_side_nav_visibility": true,
        "category_side_nav_visibility": true,
        "brand_side_nav_visibility": true,
        "product_side_nav_visibility": false,
        "content_side_nav_visibility": false,
        "contact_side_nav_visibility": false,
        "alt_subcat_images_visiblity": false,
        "alt_nav_brands_visbility": false,
        "mega_menu_depth": "three-plus-levels-deep",
        "header-inputFieldBackgroundColor": "#ffffff",
        "header-inputFieldBorderColor": "#ebebeb",
        "header-inputFieldFontColor": "#767676",
        "footer-inputFieldBackgroundColor": "#ffffff",
        "footer-inputFieldBorderColor": "#ebebeb",
        "footer-inputFieldFontColor": "#2f2f2b",
        "page-inputFieldBackgroundColor": "#ffffff",
        "page-inputFieldBorderColor": "#ebebeb",
        "page-inputFieldFontColor": "#2f2f2b",
        "show_product_weight": false,
        "show_product_dimensions": false,
        "enable_instagram_feed": false,
        "feed_position": "above-footer",
        "feed_presence": "instafeed_homepage_only",
        "instagram_access_token": "",
        "instagram_posts_count": 4,
        "instagram_columns_count": 4,
        "show_sitewide_login": false,
        "brands_page_with_sidenav": false,
        "blog_page_with_sidenav": false,
        "blog_post_with_sidenav": false,
        "cart_page_with_sidenav": false,
        "compare_page_with_sidenav": false,
        "contact_page_with_sidenav": false,
        "content_page_with_sidenav": false,
        "home_page_with_sidenav": false,
        "product_page_with_sidenav": true,
        "show_homepage_featured_banners": false,
        "featured_banner_columns": 4,
        "featured_banner_image_1": "",
        "featured_banner_name_1": "",
        "featured_banner_link_1": "",
        "external_link1": false,
        "featured_banner_image_2": "",
        "featured_banner_name_2": "",
        "featured_banner_link_2": "",
        "external_link2": false,
        "featured_banner_image_3": "",
        "featured_banner_name_3": "",
        "featured_banner_link_3": "",
        "external_link3": false,
        "featured_banner_image_4": "",
        "featured_banner_name_4": "",
        "featured_banner_link_4": "",
        "external_link4": false,
        "featured_banner_image_5": "",
        "featured_banner_name_5": "",
        "featured_banner_link_5": "",
        "external_link5": false,
        "show_sidenav_featured_banner": false,
        "featured_sidenav_image": "",
        "featured_sidenav_banner_name": "",
        "featured_sidenav_link": "",
        "external_link_sidenav": false,
        "flyout_grid_view": true,
        "flyout_grid_view_with_images": true,
        "number_of_subcats_per_page_with_images": "eight-per-page",
        "number_of_subcats_per_page_no_images": "twelve-per-page",
        "megaNav-header-fontFamily": "Google_Lato_700",
        "show_sticky_nav": false,
        "mega_nav_name": "Shop",
        "sticky_mega_nav_name": "Shop",
        "show_pages_in_sticky_mega_nav": false,
        "number_of_categories_per_page_in_dropdown": "fifteen-per-page",
        "popup-headline-color": "#000000",
        "popup-subheader-color": "#2f2f2b",
        "popup-content-color": "#2f2f2b",
        "popup-button-color": "#fd6404",
        "popup-button-text-color": "#ffffff",
        "popup-button-hover-color": "#fe7e00",
        "popup-button-text-hover-color": "#ffffff",
        "mobileMenu-subMenu-fontColor": "#ffffff",
        "brands_visibility_mobile_menu": false,
        "show_shipping_returns_link": true,
        "shipping_returns_link_name": "Shipping & Returns",
        "shipping_returns_url": "/shipping-returns/",
        "card-brand-name": false,
        "card-sku": false,
        "card-brand-sku-separate-lines": false,
        "card-brand-2-lines": false,
        "card-sku-2-lines": false,
        "price_ranges": false,
        "msrp-price": true,
        "before-sale-price": true,
        "pdp-sale-price-label": "Now:",
        "pdp-non-sale-price-label": "Was:",
        "pdp-retail-price-label": "MSRP:",
        "card-title-lines": "2-lines",
        "product_thumbnail_carousel": true
      }

    }
  ]
}
